%YAML 1.1
%TAG !u! tag:unity3d.com,2011:
--- !u!114 &11400000
MonoBehaviour:
  m_ObjectHideFlags: 0
  m_CorrespondingSourceObject: {fileID: 0}
  m_PrefabInternal: {fileID: 0}
  m_GameObject: {fileID: 0}
  m_Enabled: 1
  m_EditorHideFlags: 0
  m_Script: {fileID: 11500000, guid: 70865491002c7ca41af2ce94184e94b5, type: 3}
  m_Name: ru
  m_EditorClassIdentifier: 
  _pfAudioSource: {fileID: 8277798, guid: e8b460757d099ca43862e609758ae5d1, type: 2}
  _pfNoise: {fileID: 8277798, guid: 5008b7b32e09d9d41b75b7cf5352e164, type: 2}
  _soundDatas:
  - _clip: {fileID: 8300000, guid: 3febc72578066214aaa70747c01d6608, type: 3}
    _lowVolume: 0.3
    _highVolume: 1
    _volumeFadeInTime: 0.1
    _volumeFadeOutTime: 0.15
    _pitchChangeRange: {x: 0.1, y: 0.15}
    _pitchChangeTime: 0.1
  - _clip: {fileID: 8300000, guid: 717a8f3bbfffe3e46b62c4cdbae4383a, type: 3}
    _lowVolume: 0.3
    _highVolume: 1
    _volumeFadeInTime: 0.1
    _volumeFadeOutTime: 0.15
    _pitchChangeRange: {x: 0.1, y: 0.15}
    _pitchChangeTime: 0.1
  - _clip: {fileID: 8300000, guid: 07271d8e68d7fb84db9953c587ba2da2, type: 3}
    _lowVolume: 0.3
    _highVolume: 1
    _volumeFadeInTime: 0.1
    _volumeFadeOutTime: 0.15
    _pitchChangeRange: {x: 0.1, y: 0.15}
    _pitchChangeTime: 0.1
  - _clip: {fileID: 8300000, guid: cc704486990ec4340b5e78e69c57879d, type: 3}
    _lowVolume: 0.3
    _highVolume: 1
    _volumeFadeInTime: 0.1
    _volumeFadeOutTime: 0.15
    _pitchChangeRange: {x: 0.1, y: 0.15}
    _pitchChangeTime: 0.1
  _noiseClips: []
  _specificAudios: []
  _shortPauseRange: {x: 0.05, y: 0.15}
  _longPauseRange: {x: 0.2, y: 0.3}
  _randomPauseRange: {x: 0, y: 0.2}
  _avgSoundGroupSize: 6
  _chanceStartToneUp: 0.3
  _chanceStartToneDown: 0.3
  _chanceMidToneChange: 0.035
  _chanceEndToneChange: 0.4
  _doVolumeFade: 1
  _doPitchFade: 1
